%YAML 1.1
%TAG !u! tag:unity3d.com,2011:
--- !u!1045 &1
EditorBuildSettings:
  m_ObjectHideFlags: 0
  serializedVersion: 2
  m_Scenes:
  - enabled: 1
    path: Assets/Scenes/MainMenu.unity
    guid: 1199acd168eaa5a41896bff83f6ba97e
  - enabled: 1
    path: Assets/Scenes/Test.unity
    guid: caeef55f6dd385c4a818201943e138d2
